1 10 20
100 200 125
201 210 89
900 1000 174
1 1 1
1 9 20
9 10 20
100 1000 179
792792 470340 509
962913 944931 414
292672 277171 389
111218 741290 509
343562 224835 443
146610 321346 443
747578 203526 509
417221 56974 449
312432 798099 509
961017 409643 525
780300 293399 509
738731 95826 509
601012 81067 470
38952 785089 509
68508 603208 470
573165 309786 470
57043 762189 509
434137 955780 525
580095 92074 470
771791 837262 468
754834 331489 509
610077 593989 403
134840 538492 470
859948 374729 525
392929 261105 441
374686 931099 525
600789 471544 470
162382 130299 383
877878 935744 476
93233 639026 509
861097 793746 525
738698 707566 424
278690 890213 525
562652 880481 525
902005 974768 507
156524 361951 443
858604 30971 525
599662 767244 509
599007 598345 328
342633 492534 449
389186 201839 443
8695 529468 470
763436 545669 509
299132 741762 509
67308 337915 443
593308 118782 470
744815 136298 509
454963 729665 509
702375 965601 525
883334 977957 507
946028 160453 525
49842 999377 525
998235 445868 525
292044 629882 509
442343 822808 509
140762 949640 525
692267 308380 509
895366 980797 507
135742 525744 470
718574 347822 509
112990 219309 386
381382 26206 443
526336 350998 470
944962 901428 507
331781 828091 509
599434 65337 470
612910 582279 434
885824 481827 525
141673 236995 443
961209 75184 525
173279 230681 443
882709 279519 525
287713 155427 443
342449 810448 509
568195 202497 470
623837 445922 470
972710 804885 525
792848 223089 509
459571 606312 470
181517 108094 383
995064 145575 525
942733 366777 525
398966 603066 470
40419 559972 470
332155 949659 525
611494 423830 470
266888 827377 509
750300 91292 509
680518 884151 525
368207 892115 525
764695 942408 525
308304 437806 449
909271 441845 525
910790 705681 525
619069 547994 447
464832 945660 525
956619 531841 525
336796 881718 525
909866 857258 445
367736 536028 470
697608 748169 504
904802 571832 525
432711 205386 449
264830 655538 509
600079 2567 470
398699 669195 509
958568 644614 525
976545 358403 525
758928 972525 525
542754 836949 509
468918 668959 509
272729 419945 449
821492 189565 509
469555 266492 449
691579 2816 509
486453 784403 509
286349 881330 525
284238 328373 389
184069 545587 470
861911 330740 525
136934 795438 509
917597 3844 525
57211 875576 525
861294 178455 525
77041 774144 509
839037 201440 525
830544 768130 468
911260 468022 525
805597 429884 509
528490 579442 452
186200 674961 509
368700 878131 525
281576 926405 525
470407 738006 509
508379 151721 449
388300 828967 509
708913 938473 525
702128 354230 509
355862 926319 525
531527 94324 470
95611 489592 449
197575 143604 383
888121 342628 525
991138 199204 525
152655 65681 375
281870 930214 525
907814 158305 525
132867 498676 449
496298 848464 525
576653 963350 525
623166 85488 470
205596 147850 383
756283 119867 509
647106 796781 504
39863 7445 324
317136 284570 389
262167 539852 470
66912 354447 443
611719 759804 509
456195 294572 449
391882 330025 441
172986 329871 443
863932 943966 507
462656 102335 449
829784 224623 509
903473 793502 525
520428 132292 470
305901 571665 470
352138 205439 443
982760 528479 525
877954 294776 525
165385 677743 509
286719 240365 407
308497 84174 443
632557 337366 509
117052 646225 509
907945 480127 525
823871 712323 468
695533 889988 525
69207 551046 470
376300 3272 443
37788 895171 525
991045 631051 525
62082 213381 383
832906 633988 504
513509 415632 470
397038 313451 441
965036 863899 507
194974 520361 470
909303 918199 476
549183 16375 470
384400 368204 423
990217 77917 525
426236 796665 509
836663 192491 509
744 813402 509
161876 375926 443
848961 215284 525
877784 118132 525
533088 370659 470
