49383 395064 443
12777 89439 351
67793 474551 449
45386 181544 383
36649 109947 354
2362 21258 279
8690 95590 351
17763 142104 354
60540 484320 449
9172 73376 340
45211 452110 449
62567 688237 509
65782 131564 354
2862 14310 276
54067 378469 443
73929 295716 443
34022 340220 443
13069 117621 354
41393 331144 443
15011 60044 340
56229 281145 443
44421 488631 449
13784 124056 354
15198 91188 351
38315 76630 340
46413 371304 443
56091 112182 354
79956 399780 443
46862 93724 351
26996 80988 351
22305 156135 375
37084 333756 443
20336 142352 354
70846 779306 509
21313 191817 383
16124 112868 354
59582 417074 449
18814 169326 383
35434 212604 383
24043 48086 324
51087 510870 449
77276 772760 509
55788 334728 443
25403 76209 340
72754 800294 509
79932 159864 383
29676 296760 443
27739 110956 354
36226 289808 443
68094 749034 509
60795 121590 354
11434 114340 354
57467 172401 383
70097 280388 443
13317 53268 340
6652 53216 340
77301 154602 375
4286 12858 268
73865 812515 509
68444 752884 509
38440 422840 449
38031 342279 443
18097 54291 340
74481 521367 470
40709 366381 443
24567 196536 383
59497 297485 443
54586 382102 443
15306 76530 340
6219 37314 324
51528 154584 375
5732 63052 340
9503 104533 351
58270 582700 470
39708 277956 443
26340 289740 443
27796 138980 354
22618 158326 383
42846 128538 354
12921 90447 351
72379 723790 509
17764 177640 383
29841 59682 340
45193 90386 351
37034 222204 386
30124 180744 383
56987 455896 449
13743 41229 324
2227 15589 276
69859 558872 470
31432 94296 351
76437 764370 509
73275 659475 509
61474 184422 383
28858 202006 383
76029 684261 509
68235 341175 443
65818 658180 509
6143 18429 279
55928 615208 470
38776 232656 443
44443 222215 386
34613 346130 443
38606 77212 351
42904 429040 449
35128 351280 443
37369 336321 443
9917 79336 351
43324 216620 386
59470 297350 443
58490 643390 509
49772 348404 443
25644 51288 324
57505 632555 509
22954 183632 383
67669 270676 443
68542 411252 449
70197 631773 509
39355 236130 443
16348 49044 324
13622 136220 354
69299 346495 443
75746 757460 509
74340 297360 443
63311 126622 354
67605 202815 383
65661 131322 354
44878 314146 443
29320 234560 443
79444 635552 509
48522 339654 443
26708 213664 383
48282 482820 449
52924 476316 449
2062 12372 268
2600 20800 279
33452 367972 443
59379 118758 354
27468 82404 351
60973 182919 383
63881 127762 354
8933 53598 340
78660 393300 443
17199 51597 324
68899 551192 470
72959 364795 443
32813 328130 443
67190 470330 449
72926 583408 470
45084 90168 351
22090 132540 354
3376 13504 276
75936 683424 509
77445 619560 470
29179 291790 443
26887 107548 354
63348 253392 443
11659 128249 354
2336 4672 238
46342 417078 449
38206 114618 354
57713 230852 443
15321 107247 354
64819 713009 509
77721 466326 449
75939 227817 386
33940 305460 443
31705 317050 443
11127 22254 279
45984 459840 449
43920 263520 443
2422 26642 308
21396 64188 340
45630 273780 443
79292 317168 443
7672 15344 276
7625 53375 340
21222 233442 443
66640 266560 443
23898 119490 354
72298 144596 375
40524 81048 351
48209 144627 375
48819 390552 443
57732 404124 443
55994 335964 443
379 4169 238
5273 42184 324
28850 201950 383
1860 7440 262
55579 333474 443
21993 153951 375
67621 608589 470
42504 212520 383
41961 251766 443
31326 344586 443
78944 315776 443
53202 425616 449
56784 170352 383
62842 628420 509
29528 324808 443
48872 488720 449
9958 99580 351
8036 80360 351
17753 177530 383
23303 116515 354
12133 121330 354
12890 77340 351
37567 300536 443
10368 114048 354
34500 276000 443
33788 304092 443
26249 52498 324
73303 366515 443
65363 588267 470
30253 121012 354
7686 53802 340
1152 9216 262
45975 459750 449
49157 540727 470
55436 110872 354
13414 40242 324
30460 182760 383
60028 540252 470
38050 380500 443
67556 270224 443
24794 223146 386
18699 93495 351
21039 84156 351
10428 52140 324
24500 73500 340
57647 576470 470
76159 228477 386
42535 255210 443
24339 97356 351
62215 559935 470
40504 445544 449
60049 360294 443
58285 641135 509
15343 107401 354
23177 46354 324
45238 135714 354
16949 186439 383
55367 553670 470
32292 226044 386
743 4458 238
62829 125658 354
1682 3364 217
73541 808951 509
