1 10 20
100 200 125
201 210 89
900 1000 174
10000 1002 262
542345 748932 509
734856 184783 509
294839 102983 443
102983 294836 443
74823 948985 525
2123 388576 443
860000 978432 507
209438 2 383
765893 699823 504
800000 849999 525
970000 999999 458
325647 84734 443
200 10938 262
810929 836754 450
837489 849999 525
453675 289874 449
766783 127467 509
678234 668934 385
650000 699998 442
1 59 113
1 598 144
2837 128 209
37859 182 324
374862 578934 470
238945 287586 407
182478 138745 383
172849 50000 383
128748 89999 354
100 5000 238
3784 1 238
97884 32845 351
475895 485965 413
237785 276734 407
895048 298495 525
348384 978393 525
90889 298784 443
90983 88735 315
8392 97532 351
984 2 179
83758 9 351
287839 830998 509
18637 8274 279
128974 839999 525
830000 840000 525
830000 835000 419
1 835000 509
298483 489549 449
909854 348905 525
902839 850000 445
875678 845987 432
12978 3283 268
46738 287424 443
908849 999999 507
297489 1923 443
56748 39878 340
893095 869054 445
12 49999 324
28746 500 308
387894 297834 441
998382 100000 525
2873 1982 209
937584 999999 507
2887 1982 209
928 109 179
28346 899543 525
8947 2837 262
19837 987829 525
9347 1 262
200 38487 324
378939 6895 443
687833 489054 509
928743 878959 476
108287 838746 525
600000 840000 525
784902 108289 509
92884 821 351
19 90000 351
2891 383 209
192984 678954 509
847584 819204 525
829 28743 308
200000 183785 360
478954 893748 525
289478 297384 358
9983 209943 383
939857 10000 525
129838 398483 443
928832 912 525
928784 948783 507
9271 1233 262
84823 847752 525
47859 297849 443
23 1345 182
28483 2212 308
75863 478345 449
7584 2958 262
939858 940000 277
3892 47839 324
389758 109384 443
782743 374832 509
475839 473841 382
8483 92891 351
10 3902 238
385928 385843 268
885948 900000 445
578345 600000 434
599999 600000 227
294329 300000 371
475849 283543 449
38484 2 324
10293 837829 525
38294 7584 324
237583 47835 443
1 1 1
388378 295879 441
399037 91 443
89287 89222 302
17847 17238 279
83864 277772 443
688476 489547 509
908937 789065 525
467584 237567 449
487593 565485 470
234683 848375 525
478239 465839 413
908484 589385 525
578493 384345 470
968748 900000 507
385673 784765 509
768578 700000 504
478593 200 449
489583 999999 525
4783 100 238
20894 834789 509
874893 900000 445
284932 128 443
8493 94908 351
888395 840000 445
327564 675846 509
567485 550000 421
347895 475845 449
758489 758945 362
27384 1234 308
57839 6848 340
67859 574846 470
574856 588478 434
28493 385484 443
859493 841029 419
388473 374932 423
274832 473853 449
102 38493 324
284984 200000 443
2893 103893 351
57849 193792 383
278478 283732 358
905844 920394 476
780694 408390 509
475989 498594 426
389284 284834 441
1029 48960 324
9028 5938 262
29 709609 509
29493 678954 509
499035 394832 449
483934 1 449
284935 290493 389
498924 389533 449
189438 139289 383
238904 292843 407
1 854083 525
234 890 179
389 109 144
489 908 179
785 289 171
109 478 144
398 8902 262
9099 1098 262
39284 9289 324
9028 12987 268
290 109 128
109 389243 443
3892 932834 525
201 689503 509
758936 53 509
4782 389245 443
283934 192843 443
8927 19284 279
289342 10 443
378392 920 443
420 289248 443
908935 12 525
382742 282913 441
28193 173824 383
372 835000 509
57835 19735 340
2973 172 217
21784 187642 383
837825 128435 525
287483 129873 443
387583 187424 443
284835 123 443
78594 1937 351
47893 568943 470
478391 5892 449
378939 576842 470
2847 12 209
378932 5879 443
78395 1246 351
478291 589293 470
489294 234 449
237891 900000 525
792834 740964 468
287859 197459 443
298748 789506 509
243589 101024 443
50 489738 449
759485 689506 504
784 29784 308
8392 109245 354
